{
    "wcid": 24411,
    "weenieType": 1,
    "boolStats": [{
            "key": 1,
            "value": 1
        }, {
            "key": 11,
            "value": 1
        }, {
            "key": 18,
            "value": 1
        }
    ],
    "intStats": [{
            "key": 81,
            "value": 1
        }, {
            "key": 82,
            "value": 1
        }, {
            "key": 93,
            "value": 1044
        }
    ],
    "didStats": [{
            "key": 1,
            "value": 33555051
        }, {
            "key": 8,
            "value": 100667494
        }
    ],
    "iidStats": [],
    "floatStats": [{
            "key": 41,
            "value": 480.0
        }, {
            "key": 43,
            "value": 0.0
        }
    ],
    "int64Stats": [],
    "stringStats": [{
            "key": 1,
            "value": "Asheron Invasion Extreme Generators"
        }
    ],
    "generatorTable": [{
            "delay": 480.0,
            "frame": {
                "origin": {
                    "x": 0.0,
                    "y": 0.0,
                    "z": 0.0
                },
                "angles": {
                    "w": 1.0,
                    "x": 0.0,
                    "y": 0.0,
                    "z": 0.0
                }
            },
            "initCreate": 1,
            "maxNum": 1,
            "objcell_id": 0,
            "probability": 0.33,
            "ptid": 0,
            "shade": 0.0,
            "slot": 0,
            "stackSize": -1,
            "type": 24453,
            "whenCreate": 1,
            "whereCreate": 1
        }, {
            "delay": 480.0,
            "frame": {
                "origin": {
                    "x": 0.0,
                    "y": 0.0,
                    "z": 0.0
                },
                "angles": {
                    "w": 1.0,
                    "x": 0.0,
                    "y": 0.0,
                    "z": 0.0
                }
            },
            "initCreate": 1,
            "maxNum": 1,
            "objcell_id": 0,
            "probability": 0.67,
            "ptid": 0,
            "shade": 0.0,
            "slot": 0,
            "stackSize": -1,
            "type": 24305,
            "whenCreate": 1,
            "whereCreate": 1
        }, {
            "delay": 480.0,
            "frame": {
                "origin": {
                    "x": 0.0,
                    "y": 0.0,
                    "z": 0.0
                },
                "angles": {
                    "w": 1.0,
                    "x": 0.0,
                    "y": 0.0,
                    "z": 0.0
                }
            },
            "initCreate": 1,
            "maxNum": 1,
            "objcell_id": 0,
            "probability": 1.00,
            "ptid": 0,
            "shade": 0.0,
            "slot": 0,
            "stackSize": -1,
            "type": 23987,
            "whenCreate": 1,
            "whereCreate": 1
        }
    ],
    "changelog": [],
    "isDone": false
}
